{
    "name": "UnityUtils.EditorUtilities.QuickButtons.Demo",
    "references": [
        "UnityUtils.EditorUtilities.QuickButtons"
    ],
    "optionalUnityReferences": [],
    "includePlatforms": [
        "Editor"
    ],
    "excludePlatforms": [],
    "allowUnsafeCode": false,
    "overrideReferences": false,
    "precompiledReferences": [],
    "autoReferenced": true,
    "defineConstraints": []
}